<?xml version="1.0" encoding="UTF-8"?>
<svg width="25px" height="32px" viewBox="0 0 25 32" version="1.1" xmlns="http://www.w3.org/2000/svg" xmlns:xlink="http://www.w3.org/1999/xlink">
    <!-- Generator: Sketch 52.4 (67378) - http://www.bohemiancoding.com/sketch -->
    <title>Document-Icon</title>
    <desc>Created with Sketch.</desc>
    <g id="[ASSET]-ICONS" stroke="none" stroke-width="1" fill="none" fill-rule="evenodd">
        <g id="Icons-New" transform="translate(-686.000000, -31.000000)" fill-rule="nonzero">
            <g id="Document-Icon" transform="translate(682.000000, 31.000000)">
                <rect id="Rectangle-11" fill="#F5A623" x="9" y="0" width="20" height="28" rx="4"></rect>
                <g id="Group-3" transform="translate(4.000000, 2.000000)">
                    <path d="M7.94274902,0 L19.4705882,0 C21.4198285,-3.58069633e-16 23,1.58017147 23,3.52941176 L23,26.4705882 C23,28.4198285 21.4198285,30 19.4705882,30 L3.52941176,30 C1.58017147,30 2.38713089e-16,28.4198285 0,26.4705882 L0,7.96655273 L7.94274902,0 Z" id="Combined-Shape" fill="#000000"></path>
                    <path d="M6.29223633,1.76470588 L19.4660633,1.76470588 C20.4406835,1.76470588 21.2307692,2.55479162 21.2307692,3.52941176 L21.2307692,26.4705882 C21.2307692,27.4452084 20.4406835,28.2352941 19.4660633,28.2352941 L3.53393665,28.2352941 C2.5593165,28.2352941 1.76923077,27.4452084 1.76923077,26.4705882 L1.76923077,6.29699707 L6.29223633,1.76470588 Z" id="Combined-Shape-Copy" fill="#FFFFFF"></path>
                    <path d="M7.96153846,0 L7.96153846,6.17647059 C7.96153846,7.15109073 7.17145273,7.94117647 6.19683258,7.94117647 L0,7.94117647 L7.96153846,0 Z" id="Rectangle-10" fill="#000000"></path>
                    <path d="M5.88235294,10 L16.1176471,10 C16.6049571,10 17,10.3950429 17,10.8823529 L17,11.1176471 C17,11.6049571 16.6049571,12 16.1176471,12 L5.88235294,12 C5.39504287,12 5,11.6049571 5,11.1176471 L5,10.8823529 C5,10.3950429 5.39504287,10 5.88235294,10 Z" id="Rectangle-13" fill="#F5A623"></path>
                    <path d="M5.88235294,18 L16.1176471,18 C16.6049571,18 17,18.3950429 17,18.8823529 L17,19.1176471 C17,19.6049571 16.6049571,20 16.1176471,20 L5.88235294,20 C5.39504287,20 5,19.6049571 5,19.1176471 L5,18.8823529 C5,18.3950429 5.39504287,18 5.88235294,18 Z" id="Rectangle-13-Copy-2" fill="#000000"></path>
                    <path d="M5.88235294,22 L16.1176471,22 C16.6049571,22 17,22.3950429 17,22.8823529 L17,23.1176471 C17,23.6049571 16.6049571,24 16.1176471,24 L5.88235294,24 C5.39504287,24 5,23.6049571 5,23.1176471 L5,22.8823529 C5,22.3950429 5.39504287,22 5.88235294,22 Z" id="Rectangle-13-Copy-3" fill="#F5A623"></path>
                    <path d="M5.88235294,14 L14.1176471,14 C14.6049571,14 15,14.3950429 15,14.8823529 L15,15.1176471 C15,15.6049571 14.6049571,16 14.1176471,16 L5.88235294,16 C5.39504287,16 5,15.6049571 5,15.1176471 L5,14.8823529 C5,14.3950429 5.39504287,14 5.88235294,14 Z" id="Rectangle-13-Copy" fill="#000000"></path>
                </g>
                <rect id="Rectangle-8" stroke="#979797" stroke-width="0.64" fill="#D8D8D8" opacity="0" x="0.32" y="0.32" width="31.36" height="31.36"></rect>
            </g>
        </g>
    </g>
</svg>